%YAML 1.1
%TAG !u! tag:unity3d.com,2011:
--- !u!1001 &2081475043500709984
PrefabInstance:
  m_ObjectHideFlags: 0
  serializedVersion: 2
  m_Modification:
    m_TransformParent: {fileID: 0}
    m_Modifications:
    - target: {fileID: 704198473468734456, guid: ce65715dc4cca144388970697d27f007,
        type: 3}
      propertyPath: m_Name
      value: Mole
      objectReference: {fileID: 0}
    - target: {fileID: 2203269153258019369, guid: ce65715dc4cca144388970697d27f007,
        type: 3}
      propertyPath: m_LocalPosition.x
      value: -2.1608298
      objectReference: {fileID: 0}
    - target: {fileID: 2203269153258019369, guid: ce65715dc4cca144388970697d27f007,
        type: 3}
      propertyPath: m_LocalPosition.y
      value: 2.1444259
      objectReference: {fileID: 0}
    - target: {fileID: 2203269153258019369, guid: ce65715dc4cca144388970697d27f007,
        type: 3}
      propertyPath: m_LocalPosition.z
      value: -1
      objectReference: {fileID: 0}
    - target: {fileID: 2203269153258019369, guid: ce65715dc4cca144388970697d27f007,
        type: 3}
      propertyPath: m_LocalRotation.x
      value: 0
      objectReference: {fileID: 0}
    - target: {fileID: 2203269153258019369, guid: ce65715dc4cca144388970697d27f007,
        type: 3}
      propertyPath: m_LocalRotation.y
      value: 0
      objectReference: {fileID: 0}
    - target: {fileID: 2203269153258019369, guid: ce65715dc4cca144388970697d27f007,
        type: 3}
      propertyPath: m_LocalRotation.z
      value: 0
      objectReference: {fileID: 0}
    - target: {fileID: 2203269153258019369, guid: ce65715dc4cca144388970697d27f007,
        type: 3}
      propertyPath: m_LocalRotation.w
      value: 1
      objectReference: {fileID: 0}
    - target: {fileID: 2203269153258019369, guid: ce65715dc4cca144388970697d27f007,
        type: 3}
      propertyPath: m_RootOrder
      value: 0
      objectReference: {fileID: 0}
    - target: {fileID: 2203269153258019369, guid: ce65715dc4cca144388970697d27f007,
        type: 3}
      propertyPath: m_LocalEulerAnglesHint.x
      value: 0
      objectReference: {fileID: 0}
    - target: {fileID: 2203269153258019369, guid: ce65715dc4cca144388970697d27f007,
        type: 3}
      propertyPath: m_LocalEulerAnglesHint.y
      value: 0
      objectReference: {fileID: 0}
    - target: {fileID: 2203269153258019369, guid: ce65715dc4cca144388970697d27f007,
        type: 3}
      propertyPath: m_LocalEulerAnglesHint.z
      value: 0
      objectReference: {fileID: 0}
    - target: {fileID: 2713049418590234271, guid: ce65715dc4cca144388970697d27f007,
        type: 3}
      propertyPath: animator
      value: 
      objectReference: {fileID: 6001653389676815495}
    m_RemovedComponents: []
  m_SourcePrefab: {fileID: 100100000, guid: ce65715dc4cca144388970697d27f007, type: 3}
--- !u!95 &6001653389676815495 stripped
Animator:
  m_CorrespondingSourceObject: {fileID: 5740054825279159527, guid: ce65715dc4cca144388970697d27f007,
    type: 3}
  m_PrefabInstance: {fileID: 2081475043500709984}
  m_PrefabAsset: {fileID: 0}
